

level 1  fields:: 
"NAME_0"
"NAME_1"
"CACM"
"SOVEREIGN"
"EU"
"PARTA"
"CEEAC"
"NAME_4"
"NAME_2"
"NAME_3"
"IGAD"
"UNREGION2"
"UNREGION1"
"VALIDTO"
"SACU"
"NAME_LOCAL"
"UEMOA"
"WBINCOME"
"WASPARTOF"
"ISO"
"SAARC"
"DEVELOPING"
"EurAsEC"
"AOSIS"
"CAN"
"COMESA"
"CCA_2"
"CCA_1"
"VALIDFR"
"CCA_4"
"CCA_3"
"PALOP"
"TYPE_3"
"CSN"
"TYPE_4"
"TYPE_1"
"TYPE_2"
"CEPLG"
"POPSQKM"
"NAME_FAO"
"OECD"
"CARICOM"
"CONTAINS"
"ISON"
"WBREGION"
"ISO2"
"CEMAC"
"MRU"
[Dolphin]
"SIDS"
"ASEAN"
"NAFTA"
"POP2000"
"VARNAME_4"
"VARNAME_3"
"VARNAME_2"
"VARNAME_1"
"SQKM"
"Islands"
"UMA"
"FIPS"
"CCN_1"
"Landlocked"
"CCN_3"
"CCN_2"
"NAME_NONLATIN"
"GCC"
"NAME_RUSSIAN"
"CCN_4"
"Transition"
"NL_NAME_1"
"NL_NAME_2"
"NL_NAME_3"
"ECOWAS"
"NAME_CHINESE"
"LDC"
"ACP"
"Agadir"
"NAME_OBSOLETE"
"CIS"
"ENGTYPE_2"
"ENGTYPE_1"
"ID_0"
"NAME_ARABIC"
"ID_2"
"ENGTYPE_4"
"NAME_SPANISH"
"ENGTYPE_3"
"ID_1"
"ID_4"
"ID_3"
"NAME_VARIANTS"
"OBJECTID"
"WBDEBT"
"WBOTHER"
"NAME_FRENCH"
"NAME_ENGLISH"
"NAME_ISO"
"EAC"
"IOC"
"HASC_2"
"WWW"
"HASC_1"
....................................




level 2  fields:: 
"NAME_0"
"NAME_1"
"CACM"
"SOVEREIGN"
"EU"
"PARTA"
"NAME_5"
"CEEAC"
"NAME_4"
"NAME_2"
"NAME_3"
"IGAD"
"UNREGION2"
"UNREGION1"
"VALIDTO"
"SACU"
"NAME_LOCAL"
"UEMOA"
"WBINCOME"
"WASPARTOF"
"ISO"
"SAARC"
"DEVELOPING"
"EurAsEC"
"AOSIS"
"CAN"
"COMESA"
"CCA_2"
"CCA_1"
"VALIDFR"
"CCA_4"
"CCA_3"
"CCA_5"
"PALOP"
"TYPE_5"
"TYPE_3"
"CSN"
"TYPE_4"
"TYPE_1"
"TYPE_2"
"CEPLG"
"POPSQKM"
OBJECTID;ID_0;ISO;NAME_ENGLISH;NAME_ISO;NAME_FAO;NAME_LOCAL;NAME_OBSOLETE;NAME_VARIANTS;NAME_NONLATIN;NAME_FRENCH;NAME_SPANISH;NAME_RUSSIAN;NAME_ARABIC;NAME_CHINESE;WASPARTOF;CONTAINS;SOVEREIGN;ISO2;WWW;FIPS;ISON;VALIDFR;VALIDTO;POP2000;SQKM;POPSQKM;UNREGION1;UNREGION2;DEVELOPING;CIS;Transition;OECD;WBREGION;WBINCOME;WBDEBT;WBOTHER;CEEAC;CEMAC;CEPLG;COMESA;EAC;ECOWAS;IGAD;IOC;MRU;SACU;UEMOA;UMA;PALOP;PARTA;CACM;EurAsEC;Agadir;SAARC;ASEAN;NAFTA;GCC;CSN;CARICOM;EU;CAN;ACP;Landlocked;AOSIS;SIDS;Islands;LDC
"NAME_FAO"
"OECD"
"CARICOM"
"CONTAINS"
"ISON"
"WBREGION"
"ISO2"
"CEMAC"
"MRU"
"SIDS"
"ASEAN"
"NAFTA"
"POP2000"
"VARNAME_4"
"VARNAME_3"
"VARNAME_2"
"VARNAME_1"
"SQKM"
"Islands"
"UMA"
"FIPS"
"CCN_1"
"Landlocked"
"CCN_3"
"CCN_2"
"NAME_NONLATIN"
"GCC"
"NAME_RUSSIAN"
"CCN_5"
"CCN_4"
"Transition"
"NL_NAME_1"
"NL_NAME_2"
"NL_NAME_3"
"ECOWAS"
"NAME_CHINESE"
"LDC"
"ACP"
"Agadir"
"NAME_OBSOLETE"
"CIS"
"ENGTYPE_2"
"ENGTYPE_1"
"ID_0"
"NAME_ARABIC"
"ENGTYPE_5"
"ID_2"
"ENGTYPE_4"
"NAME_SPANISH"
"ENGTYPE_3"
"ID_1"
"ID_4"
"ID_3"
"ID_5"
"NAME_VARIANTS"
"OBJECTID"
"WBDEBT"
"WBOTHER"
"NAME_FRENCH"
"NAME_ENGLISH"
"NAME_ISO"
"EAC"
"IOC"
"HASC_2"
"WWW"
"HASC_1"
....................................




level 3  fields:: 
"NAME_0"
"NAME_1"
"CACM"
"SOVEREIGN"
"EU"
"SIDS"
"PARTA"
"CEEAC"
"NAME_4"
"ASEAN"
"NAFTA"
"NAME_2"
"NAME_3"
"POP2000"
"IGAD"
"UNREGION2"
"UNREGION1"
"VARNAME_4"
"VARNAME_3"
"VALIDTO"
"VARNAME_2"
"VARNAME_1"
"SQKM"
"Islands"
"SACU"
"NAME_LOCAL"
"UMA"
"UEMOA"
"FIPS"
"CCN_1"
"Landlocked"
"CCN_3"
"CCN_2"
"NAME_NONLATIN"
"WBINCOME"
"GCC"
"NAME_RUSSIAN"
"CCN_4"
"Transition"
"WASPARTOF"
"ISO"
"SAARC"
"DEVELOPING"
"EurAsEC"
"AOSIS"
"NL_NAME_1"
"NL_NAME_2"
"NL_NAME_3"
"ECOWAS"
"NAME_CHINESE"
"CAN"
"LDC"
"COMESA"
"CCA_2"
"CCA_1"
"ACP"
"Agadir"
"NAME_OBSOLETE"
"CIS"
"ENGTYPE_2"
"ENGTYPE_1"
"CCA_4"
"VALIDFR"
"ID_0"
"NAME_ARABIC"
"CCA_3"
"ID_2"
"ENGTYPE_4"
"NAME_SPANISH"
"ENGTYPE_3"
"ID_1"
"ID_4"
"ID_3"
"NAME_VARIANTS"
"OBJECTID"
"PALOP"
"TYPE_3"
"CSN"
"TYPE_4"
"WBDEBT"
"TYPE_1"
"TYPE_2"
"CEPLG"
"POPSQKM"
"WBOTHER"
"NAME_FRENCH"
"NAME_ENGLISH"
"NAME_FAO"
"NAME_ISO"
"EAC"
"OECD"
"CARICOM"
"CONTAINS"
"ISON"
"WBREGION"
"ISO2"
"IOC"
"CEMAC"
"HASC_2"
"WWW"
"HASC_1"
"MRU"
....................................




level 4  fields:: 
"NAME_CHINESE"
"CAN"
"NAME_0"
"NAME_1"
"LDC"
"COMESA"
"CACM"
"CCA_2"
"CCA_1"
"ACP"
"Agadir"
"SOVEREIGN"
"NAME_OBSOLETE"
"CIS"
"EU"
"ENGTYPE_2"
"ENGTYPE_1"
"VALIDFR"
"CCA_4"
"ID_0"
"NAME_ARABIC"
"CCA_3"
"SIDS"
"ID_2"
"ENGTYPE_4"
"NAME_SPANISH"
"ENGTYPE_3"
"ID_1"
"PARTA"
"CEEAC"
"NAME_4"
"ID_4"
"ASEAN"
"ID_3"
"NAFTA"
"NAME_2"
"NAME_3"
"NAME_VARIANTS"
"OBJECTID"
"PALOP"
"POP2000"
"TYPE_3"
"CSN"
"TYPE_4"
"WBDEBT"
"TYPE_1"
"TYPE_2"
"CEPLG"
"IGAD"
"POPSQKM"
"UNREGION2"
"WBOTHER"
"UNREGION1"
"VARNAME_4"
"NAME_FRENCH"
"VARNAME_3"
"VALIDTO"
"NAME_ENGLISH"
"VARNAME_2"
"VARNAME_1"
"SQKM"
"NAME_FAO"
"NAME_ISO"
"Islands"
"SACU"
"NAME_LOCAL"
"EAC"
"OECD"
"UMA"
"UEMOA"
"FIPS"
"CARICOM"
"CCN_1"
"Landlocked"
"CCN_3"
"CCN_2"
"NAME_NONLATIN"
"WBINCOME"
"GCC"
"NAME_RUSSIAN"
"CONTAINS"
"CCN_4"
"ISON"
"WBREGION"
"ISO2"
"Transition"
"IOC"
"WASPARTOF"
"ISO"
"SAARC"
"CEMAC"
"DEVELOPING"
"HASC_2"
"WWW"
"HASC_1"
"EurAsEC"
"AOSIS"
"NL_NAME_1"
"NL_NAME_2"
"NL_NAME_3"
"ECOWAS"
"MRU"
....................................




level 5  fields:: 
"NAME_FAO"
"WBREGION"
"ISO2"
"NAME_CHINESE"
"PALOP"
"CAN"
"POP2000"
"TYPE_5"
"NAME_ISO"
"NAME_0"
"Islands"
"SACU"
"NAME_1"
"NAME_LOCAL"
"TYPE_3"
"Transition"
"CSN"
"LDC"
"TYPE_4"
"COMESA"
"EAC"
"WBDEBT"
"IOC"
"TYPE_1"
"OECD"
"TYPE_2"
"CACM"
"WASPARTOF"
"CCA_2"
"CEPLG"
"CCA_1"
"ACP"
"ISO"
"Agadir"
"SOVEREIGN"
"NAME_OBSOLETE"
"IGAD"
"UMA"
"UEMOA"
"SAARC"
"CIS"
"POPSQKM"
"FIPS"
"EU"
"CEMAC"
"ENGTYPE_2"
"CARICOM"
"CCN_1"
"ENGTYPE_1"
"UNREGION2"
"Landlocked"
"WBOTHER"
"UNREGION1"
"CCN_3"
"DEVELOPING"
"CCN_2"
"HASC_2"
"VALIDFR"
"CCA_4"
"ID_0"
"NAME_NONLATIN"
"NAME_ARABIC"
"VARNAME_4"
"WWW"
"NAME_FRENCH"
"CCA_3"
"ENGTYPE_5"
"SIDS"
"VARNAME_3"
"VALIDTO"
"ID_2"
"ENGTYPE_4"
"HASC_1"
"NAME_ENGLISH"
"NAME_SPANISH"
"VARNAME_2"
"ENGTYPE_3"
"ID_1"
"CCA_5"
"VARNAME_1"
"PARTA"
"NAME_5"
"CEEAC"
"NAME_4"
"ID_4"
"EurAsEC"
"WBINCOME"
"AOSIS"
"ASEAN"
"ID_3"
"GCC"
"NAME_RUSSIAN"
"NAFTA"
"NAME_2"
"CONTAINS"
"ID_5"
"NL_NAME_1"
"NAME_3"
"NL_NAME_2"
"CCN_5"
"NL_NAME_3"
"SQKM"
"CCN_4"
"NAME_VARIANTS"
"ECOWAS"
"ISON"
"OBJECTID"
"MRU"
....................................




level 6  fields:: 
"EU"
"EAC"
"PARTA"
"WBDEBT"
"IOC"
"Agadir"
"CEEAC"
"NAME_ISO"
"SOVEREIGN"
"TYPE_1"
"CEMAC"
"NAME_0"
"CARICOM"
"OECD"
"VALIDFR"
"CCN_1"
"ID_0"
"NAME_FAO"
"EurAsEC"
"NAME_NONLATIN"
"NAME_ARABIC"
"NAME_OBSOLETE"
"Islands"
"WWW"
"WBINCOME"
"CACM"
"AOSIS"
"WASPARTOF"
"ENGTYPE_1"
"SACU"
"ASEAN"
"NAME_FRENCH"
"IGAD"
"NAME_1"
"WBREGION"
"SQKM"
"UMA"
"GCC"
"NAME_RUSSIAN"
"NAME_VARIANTS"
"NAME_LOCAL"
"ISO2"
"UNREGION2"
"SIDS"
"ECOWAS"
"UEMOA"
"NAFTA"
"SAARC"
"CIS"
"VALIDTO"
"POPSQKM"
"Landlocked"
"WBOTHER"
"Transition"
"CSN"
"CONTAINS"
"LDC"
"UNREGION1"
"HASC_1"
"CEPLG"
"NAME_ENGLISH"
"NAME_SPANISH"
"NAME_CHINESE"
"CCA_1"
"ISON"
"PALOP"
"OBJECTID"
"NL_NAME_1"
"CAN"
"ACP"
"POP2000"
"MRU"
"DEVELOPING"
"ID_1"
"FIPS"
"COMESA"
"VARNAME_1"
"ISO"
....................................


730
BUILD SUCCESSFUL (total time: 4 seconds)
